-------------------------------------------------------------------------------
Test set: com.starlingroundupfeature.service.AccountDetailsServiceTest
-------------------------------------------------------------------------------
Tests run: 6, Failures: 0, Errors: 0, Skipped: 0, Time elapsed: 6.782 s - in com.starlingroundupfeature.service.AccountDetailsServiceTest
