com/starlingroundupfeature/util/RoundUpUtils.class
com/starlingroundupfeature/service/RoundUpBalanceService.class
com/starlingroundupfeature/service/AccountDetailsService$2.class
com/starlingroundupfeature/util/LoggerUtils.class
com/starlingroundupfeature/reponse/amount/Amount.class
com/starlingroundupfeature/service/AccountDetailsService.class
com/starlingroundupfeature/configuration/HeadersConfig.class
com/starlingroundupfeature/reponse/amount/AmountResponse.class
com/starlingroundupfeature/service/SavingGoalService.class
com/starlingroundupfeature/exception/RoundUpException.class
com/starlingroundupfeature/request/savinggoal/SavingGoalRequest$SavingGoalRequestBuilder.class
com/starlingroundupfeature/configuration/RestTemplateConfig.class
com/starlingroundupfeature/reponse/feed/Feed.class
com/starlingroundupfeature/reponse/transaction/Transaction.class
com/starlingroundupfeature/reponse/transaction/TransactionsResponse.class
com/starlingroundupfeature/request/savinggoal/SavingGoalRequest.class
com/starlingroundupfeature/exception/RoundUpException$RoundUpExceptionBuilder.class
com/starlingroundupfeature/service/AccountDetailsService$1.class
com/starlingroundupfeature/reponse/account/Account.class
com/starlingroundupfeature/service/TransactionService.class
com/starlingroundupfeature/service/TransactionService$1.class
com/starlingroundupfeature/reponse/savinggoal/SavingGoalsResponse.class
com/starlingroundupfeature/util/StarlingApiUtils.class
com/starlingroundupfeature/service/SavingGoalService$1.class
com/starlingroundupfeature/reponse/account/AccountsResponse.class
com/starlingroundupfeature/reponse/savinggoal/SavingGoalResponse.class
com/starlingroundupfeature/StarlingRoundupFeature.class
com/starlingroundupfeature/controller/RoundUpBalanceController.class
