com/starlingroundupfeature/controller/RoundUpBalanceControllerTest.class
com/starlingroundupfeature/service/TransactionServiceTest.class
com/starlingroundupfeature/util/LoggerUtilsTest.class
com/starlingroundupfeature/service/AccountDetailsServiceTest.class
com/starlingroundupfeature/exception/RoundUpExceptionTest.class
com/starlingroundupfeature/configuration/RestTemplateConfigTest.class
com/starlingroundupfeature/util/RoundUpUtilsTest.class
com/starlingroundupfeature/service/RoundUpBalanceServiceTest.class
com/starlingroundupfeature/configuration/HeadersConfigTest.class
com/starlingroundupfeature/service/SavingGoalServiceTest.class
