/Users/wmannix/Downloads/starling-bank-round-up-feature-william-mannix/src/test/java/com/starlingroundupfeature/exception/RoundUpExceptionTest.java
/Users/wmannix/Downloads/starling-bank-round-up-feature-william-mannix/src/test/java/com/starlingroundupfeature/configuration/HeadersConfigTest.java
/Users/wmannix/Downloads/starling-bank-round-up-feature-william-mannix/src/test/java/com/starlingroundupfeature/service/RoundUpBalanceServiceTest.java
/Users/wmannix/Downloads/starling-bank-round-up-feature-william-mannix/src/test/java/com/starlingroundupfeature/service/TransactionServiceTest.java
/Users/wmannix/Downloads/starling-bank-round-up-feature-william-mannix/src/test/java/com/starlingroundupfeature/service/SavingGoalServiceTest.java
/Users/wmannix/Downloads/starling-bank-round-up-feature-william-mannix/src/test/java/com/starlingroundupfeature/service/AccountDetailsServiceTest.java
/Users/wmannix/Downloads/starling-bank-round-up-feature-william-mannix/src/test/java/com/starlingroundupfeature/util/RoundUpUtilsTest.java
/Users/wmannix/Downloads/starling-bank-round-up-feature-william-mannix/src/test/java/com/starlingroundupfeature/configuration/RestTemplateConfigTest.java
/Users/wmannix/Downloads/starling-bank-round-up-feature-william-mannix/src/test/java/com/starlingroundupfeature/util/LoggerUtilsTest.java
/Users/wmannix/Downloads/starling-bank-round-up-feature-william-mannix/src/test/java/com/starlingroundupfeature/controller/RoundUpBalanceControllerTest.java
